<?xml version="1.0" encoding="UTF-8" standalone="no"?>
<svg
   width="11in"
   height="8.5in"
   viewBox="0 0 11 8.5"
   version="1.1"
   id="SVGRoot"
   xmlns:xlink="http://www.w3.org/1999/xlink"
   xmlns="http://www.w3.org/2000/svg"
   xmlns:svg="http://www.w3.org/2000/svg"
   xmlns:rdf="http://www.w3.org/1999/02/22-rdf-syntax-ns#"
   xmlns:cc="http://creativecommons.org/ns#"
   xmlns:dc="http://purl.org/dc/elements/1.1/">
  <!--
      SPDX-FileCopyrightText: 2021-2022, Collabora, Ltd.
      SPDX-License-Identifier: MIT

      Author: Rylie Pavlik <rylie.pavlik@collabora.com>
  -->
  <!--
      NOTE: Do not directly edit the weeklycal/week.svg file
      with Inkscape or similar: instead, edit art/week.src.svg
      then "Save Copy" as type "Plain SVG" to weeklycal/week.svg,
      and selectively stage/commit changes to e.g. leave this extra
      comment intact.
   -->
  <title
     id="title20843">Weekly calendar template</title>
  <defs
     id="defs17859" />
  <metadata
     id="metadata17862">
    <rdf:RDF>
      <cc:Work
         rdf:about="">
        <dc:format>image/svg+xml</dc:format>
        <dc:type
           rdf:resource="http://purl.org/dc/dcmitype/StillImage" />
        <dc:title>Weekly calendar template</dc:title>
        <cc:license
           rdf:resource="http://creativecommons.org/publicdomain/zero/1.0/" />
        <dc:creator>
          <cc:Agent>
            <dc:title>Rylie Pavlik</dc:title>
          </cc:Agent>
        </dc:creator>
      </cc:Work>
      <cc:License
         rdf:about="http://creativecommons.org/publicdomain/zero/1.0/">
        <cc:permits
           rdf:resource="http://creativecommons.org/ns#Reproduction" />
        <cc:permits
           rdf:resource="http://creativecommons.org/ns#Distribution" />
        <cc:permits
           rdf:resource="http://creativecommons.org/ns#DerivativeWorks" />
      </cc:License>
    </rdf:RDF>
  </metadata>
  <g
     id="layer2"
     style="display:inline">
    <path
       style="fill:none;stroke:#aaaaaa;stroke-width:0.01;stroke-linecap:butt;stroke-linejoin:miter;stroke-miterlimit:4;stroke-dasharray:0.01, 0.01;stroke-dashoffset:0;stroke-opacity:1"
       d="M 1.5694452,1.2623696 H 10.197981"
       id="path18433-7" />
    <use
       x="0"
       y="0"
       xlink:href="#path18433-7"
       id="use18528"
       width="100%"
       height="100%"
       transform="translate(0,0.34968961)" />
    <use
       x="0"
       y="0"
       xlink:href="#path18433-7"
       transform="translate(1.145e-6,0.69937899)"
       id="use18530"
       width="100%"
       height="100%" />
    <use
       x="0"
       y="0"
       xlink:href="#path18433-7"
       transform="translate(0,1.0490686)"
       id="use18532"
       width="100%"
       height="100%" />
    <use
       x="0"
       y="0"
       xlink:href="#path18433-7"
       transform="translate(1.145e-6,1.7484474)"
       id="use18534"
       width="100%"
       height="100%" />
    <use
       x="0"
       y="0"
       xlink:href="#path18433-7"
       transform="translate(0,1.3987579)"
       id="use18536"
       width="100%"
       height="100%" />
    <use
       x="0"
       y="0"
       xlink:href="#path18433-7"
       transform="translate(1.145e-6,2.0981374)"
       id="use18538"
       width="100%"
       height="100%" />
    <use
       x="0"
       y="0"
       xlink:href="#path18433-7"
       transform="translate(0,2.4478267)"
       id="use18540"
       width="100%"
       height="100%" />
    <use
       x="0"
       y="0"
       xlink:href="#path18433-7"
       transform="translate(1.145e-6,2.7975162)"
       id="use18542"
       width="100%"
       height="100%" />
    <use
       x="0"
       y="0"
       xlink:href="#path18433-7"
       transform="translate(0,3.1472057)"
       id="use18544"
       width="100%"
       height="100%" />
    <use
       x="0"
       y="0"
       xlink:href="#path18433-7"
       transform="translate(0,3.4968952)"
       id="use18546"
       width="100%"
       height="100%" />
    <use
       x="0"
       y="0"
       xlink:href="#path18433-7"
       transform="translate(0,3.8465847)"
       id="use18548"
       width="100%"
       height="100%" />
    <use
       x="0"
       y="0"
       xlink:href="#path18433-7"
       transform="translate(0,4.1962743)"
       id="use18550"
       width="100%"
       height="100%" />
    <use
       x="0"
       y="0"
       xlink:href="#path18433-7"
       transform="translate(0,4.5459636)"
       id="use18552"
       width="100%"
       height="100%" />
    <use
       x="0"
       y="0"
       xlink:href="#path18433-7"
       transform="translate(0,4.8956531)"
       id="use18554"
       width="100%"
       height="100%" />
    <use
       x="0"
       y="0"
       xlink:href="#path18433-7"
       transform="translate(0,5.2453426)"
       id="use18556"
       width="100%"
       height="100%" />
    <use
       x="0"
       y="0"
       xlink:href="#path18433-7"
       transform="translate(0,5.9447216)"
       id="use18558"
       width="100%"
       height="100%" />
    <use
       x="0"
       y="0"
       xlink:href="#path18433-7"
       transform="translate(0,6.2944111)"
       id="use18560"
       width="100%"
       height="100%" />
    <use
       x="0"
       y="0"
       xlink:href="#path18433-7"
       transform="translate(0,5.5950321)"
       id="use18562"
       width="100%"
       height="100%" />
    <use
       x="0"
       y="0"
       xlink:href="#path18433-7"
       transform="translate(0,6.6441007)"
       id="use18564"
       width="100%"
       height="100%" />
    <use
       x="0"
       y="0"
       xlink:href="#path18433-7"
       transform="translate(0,6.9937899)"
       id="use18572"
       width="100%"
       height="100%" />
    <use
       x="0"
       y="0"
       xlink:href="#path18433-7"
       id="use946"
       width="100%"
       height="100%"
       transform="translate(8.2759993e-7,-0.3500571)" />
  </g>
  <g
     id="layer1"
     style="display:inline">
    <path
       style="fill:none;stroke:#aaaaaa;stroke-width:0.0104167px;stroke-linecap:butt;stroke-linejoin:miter;stroke-opacity:1"
       d="M 0.80201801,1.2623696 H 10.197982"
       id="path18433" />
    <use
       x="0"
       y="0"
       xlink:href="#path18433"
       id="use18479"
       width="100%"
       height="100%"
       transform="translate(0,0.69937878)" />
    <use
       x="0"
       y="0"
       xlink:href="#path18433"
       transform="translate(1.45e-7,1.3987578)"
       id="use18481"
       width="100%"
       height="100%" />
    <use
       x="0"
       y="0"
       xlink:href="#path18433"
       transform="translate(1.45e-7,2.0981369)"
       id="use18483"
       width="100%"
       height="100%" />
    <use
       x="0"
       y="0"
       xlink:href="#path18433"
       transform="translate(1.45e-7,2.7975158)"
       id="use18485"
       width="100%"
       height="100%" />
    <use
       x="0"
       y="0"
       xlink:href="#path18433"
       transform="translate(1.45e-7,3.4968947)"
       id="use18487"
       width="100%"
       height="100%" />
    <use
       x="0"
       y="0"
       xlink:href="#path18433"
       transform="translate(1.45e-7,4.196274)"
       id="use18489"
       width="100%"
       height="100%" />
    <use
       x="0"
       y="0"
       xlink:href="#path18433"
       transform="translate(1.45e-7,4.8956531)"
       id="use18491"
       width="100%"
       height="100%" />
    <use
       x="0"
       y="0"
       xlink:href="#path18433"
       transform="translate(1.45e-7,5.595032)"
       id="use18493"
       width="100%"
       height="100%" />
    <use
       x="0"
       y="0"
       xlink:href="#path18433"
       transform="translate(1.45e-7,6.2944109)"
       id="use18495"
       width="100%"
       height="100%" />
    <use
       x="0"
       y="0"
       xlink:href="#path18433"
       transform="translate(0,6.9937899)"
       id="use18497"
       width="100%"
       height="100%" />
  </g>
  <g
     id="layer3">
    <path
       style="fill:none;stroke:#aaaaaa;stroke-width:0.00989863px;stroke-linecap:butt;stroke-linejoin:miter;stroke-opacity:1"
       d="m 1.569446,0.9123125 v 7.346909"
       id="path18583" />
    <use
       x="0"
       y="0"
       xlink:href="#path18583"
       id="use18615"
       transform="translate(1.7257068,-0.00306168)"
       width="100%"
       height="100%" />
    <use
       x="0"
       y="0"
       xlink:href="#path18583"
       transform="translate(3.4514139,-0.00306197)"
       id="use18617"
       width="100%"
       height="100%" />
    <use
       x="0"
       y="0"
       xlink:href="#path18583"
       transform="translate(5.1771207,-0.00306197)"
       id="use18619"
       width="100%"
       height="100%" />
    <use
       x="0"
       y="0"
       xlink:href="#path18583"
       transform="translate(6.9028289,-0.00306197)"
       id="use18621"
       width="100%"
       height="100%" />
    <use
       x="0"
       y="0"
       xlink:href="#path18583"
       transform="translate(8.6285354,-0.00306197)"
       id="use18623"
       width="100%"
       height="100%" />
    <path
       style="fill:none;stroke:#aaaaaa;stroke-width:0.005;stroke-linecap:butt;stroke-linejoin:miter;stroke-miterlimit:4;stroke-dasharray:none;stroke-opacity:1"
       d="M 1.5694462,0.90925082 V 0.30919478"
       id="path948" />
    <use
       x="0"
       y="0"
       xlink:href="#path948"
       id="use960"
       transform="translate(1.7257066)"
       width="100%"
       height="100%" />
    <use
       x="0"
       y="0"
       xlink:href="#path948"
       transform="translate(3.4514137)"
       id="use962"
       width="100%"
       height="100%" />
    <use
       x="0"
       y="0"
       xlink:href="#path948"
       transform="translate(5.1771205)"
       id="use964"
       width="100%"
       height="100%" />
    <use
       x="0"
       y="0"
       xlink:href="#path948"
       transform="translate(6.9028287)"
       id="use966"
       width="100%"
       height="100%" />
    <use
       x="0"
       y="0"
       xlink:href="#path948"
       transform="translate(8.6285356,0.00306168)"
       id="use968"
       width="100%"
       height="100%" />
  </g>
  <g
     id="layer4">
    <g
       id="g19527"
       transform="translate(0.00509135,-0.18749997)">
      <text
         xml:space="preserve"
         style="font-style:normal;font-variant:normal;font-weight:100;font-stretch:normal;font-size:0.180556px;line-height:1.25;font-family:'Noto Sans';-inkscape-font-specification:'Noto Sans, Thin';font-variant-ligatures:normal;font-variant-caps:small-caps;font-variant-numeric:normal;font-variant-east-asian:normal;letter-spacing:0px;word-spacing:0px;writing-mode:lr-tb;stroke-width:0.00633567"
         x="1.591278"
         y="0.66196591"
         id="text19493"><tspan
           id="tspan19491"
           x="1.591278"
           y="0.66196591"
           style="font-style:normal;font-variant:normal;font-weight:100;font-stretch:normal;font-size:0.180556px;font-family:'Noto Sans';-inkscape-font-specification:'Noto Sans, Thin';font-variant-ligatures:normal;font-variant-caps:small-caps;font-variant-numeric:normal;font-variant-east-asian:normal;stroke-width:0.00633567">Monday</tspan></text>
      <text
         xml:space="preserve"
         style="font-style:normal;font-variant:normal;font-weight:100;font-stretch:normal;font-size:0.305556px;line-height:1.25;font-family:'Noto Sans';-inkscape-font-specification:'Noto Sans, Thin';font-variant-ligatures:normal;font-variant-caps:normal;font-variant-numeric:normal;font-variant-east-asian:normal;letter-spacing:0px;word-spacing:0px;writing-mode:lr-tb;stroke-width:0.00633567"
         x="1.5787085"
         y="0.96981764"
         id="date_monday"><tspan
           id="tspan19519"
           x="1.5787085"
           y="0.96981764"
           style="font-style:normal;font-variant:normal;font-weight:100;font-stretch:normal;font-size:0.305556px;font-family:'Noto Sans';-inkscape-font-specification:'Noto Sans, Thin';font-variant-ligatures:normal;font-variant-caps:normal;font-variant-numeric:normal;font-variant-east-asian:normal;stroke-width:0.00633567">1</tspan></text>
      <text
         xml:space="preserve"
         style="font-style:normal;font-variant:normal;font-weight:100;font-stretch:normal;font-size:0.180556px;line-height:1.25;font-family:'Noto Sans';-inkscape-font-specification:'Noto Sans, Thin';font-variant-ligatures:normal;font-variant-caps:small-caps;font-variant-numeric:normal;font-variant-east-asian:normal;letter-spacing:0px;word-spacing:0px;writing-mode:lr-tb;stroke-width:0.00633567"
         x="2.3414369"
         y="0.66189688"
         id="month"><tspan
           id="tspan22052"
           x="2.3414369"
           y="0.66189688"
           style="font-style:normal;font-variant:normal;font-weight:100;font-stretch:normal;font-size:0.180556px;font-family:'Noto Sans';-inkscape-font-specification:'Noto Sans, Thin';font-variant-ligatures:normal;font-variant-caps:small-caps;font-variant-numeric:normal;font-variant-east-asian:normal;stroke-width:0.00633567"> </tspan></text>
    </g>
    <g
       id="g19539"
       transform="translate(1.7344163,-0.18749997)">
      <text
         xml:space="preserve"
         style="font-style:normal;font-variant:normal;font-weight:100;font-stretch:normal;font-size:0.180556px;line-height:1.25;font-family:'Noto Sans';-inkscape-font-specification:'Noto Sans, Thin';font-variant-ligatures:normal;font-variant-caps:small-caps;font-variant-numeric:normal;font-variant-east-asian:normal;letter-spacing:0px;word-spacing:0px;writing-mode:lr-tb;stroke-width:0.00633567"
         x="1.5887183"
         y="0.66196591"
         id="text19533"><tspan
           id="tspan19531"
           x="1.5887183"
           y="0.66196591"
           style="font-style:normal;font-variant:normal;font-weight:100;font-stretch:normal;font-size:0.180556px;font-family:'Noto Sans';-inkscape-font-specification:'Noto Sans, Thin';font-variant-ligatures:normal;font-variant-caps:small-caps;font-variant-numeric:normal;font-variant-east-asian:normal;stroke-width:0.00633567">Tuesday</tspan></text>
      <text
         xml:space="preserve"
         style="font-style:normal;font-variant:normal;font-weight:100;font-stretch:normal;font-size:0.305556px;line-height:1.25;font-family:'Noto Sans';-inkscape-font-specification:'Noto Sans, Thin';font-variant-ligatures:normal;font-variant-caps:normal;font-variant-numeric:normal;font-variant-east-asian:normal;letter-spacing:0px;word-spacing:0px;writing-mode:lr-tb;stroke-width:0.00633567"
         x="1.591135"
         y="0.96981764"
         id="date_tuesday"><tspan
           id="tspan19535"
           x="1.591135"
           y="0.96981764"
           style="font-style:normal;font-variant:normal;font-weight:100;font-stretch:normal;font-size:0.305556px;font-family:'Noto Sans';-inkscape-font-specification:'Noto Sans, Thin';font-variant-ligatures:normal;font-variant-caps:normal;font-variant-numeric:normal;font-variant-east-asian:normal;stroke-width:0.00633567">1</tspan></text>
    </g>
    <g
       id="g19549"
       transform="translate(3.4637414,-0.18749997)">
      <text
         xml:space="preserve"
         style="font-style:normal;font-variant:normal;font-weight:100;font-stretch:normal;font-size:0.180556px;line-height:1.25;font-family:'Noto Sans';-inkscape-font-specification:'Noto Sans, Thin';font-variant-ligatures:normal;font-variant-caps:small-caps;font-variant-numeric:normal;font-variant-east-asian:normal;letter-spacing:0px;word-spacing:0px;writing-mode:lr-tb;stroke-width:0.00633567"
         x="1.5887183"
         y="0.66196591"
         id="text19543"><tspan
           id="tspan19541"
           x="1.5887183"
           y="0.66196591"
           style="font-style:normal;font-variant:normal;font-weight:100;font-stretch:normal;font-size:0.180556px;font-family:'Noto Sans';-inkscape-font-specification:'Noto Sans, Thin';font-variant-ligatures:normal;font-variant-caps:small-caps;font-variant-numeric:normal;font-variant-east-asian:normal;stroke-width:0.00633567">Wednesday</tspan></text>
      <text
         xml:space="preserve"
         style="font-style:normal;font-variant:normal;font-weight:100;font-stretch:normal;font-size:0.305556px;line-height:1.25;font-family:'Noto Sans';-inkscape-font-specification:'Noto Sans, Thin';font-variant-ligatures:normal;font-variant-caps:normal;font-variant-numeric:normal;font-variant-east-asian:normal;letter-spacing:0px;word-spacing:0px;writing-mode:lr-tb;stroke-width:0.00633567"
         x="1.591135"
         y="0.96981764"
         id="date_wednesday"><tspan
           id="tspan19545"
           x="1.591135"
           y="0.96981764"
           style="font-style:normal;font-variant:normal;font-weight:100;font-stretch:normal;font-size:0.305556px;font-family:'Noto Sans';-inkscape-font-specification:'Noto Sans, Thin';font-variant-ligatures:normal;font-variant-caps:normal;font-variant-numeric:normal;font-variant-east-asian:normal;stroke-width:0.00633567">1</tspan></text>
    </g>
    <g
       id="g19559"
       transform="translate(5.1930663,-0.18749997)">
      <text
         xml:space="preserve"
         style="font-style:normal;font-variant:normal;font-weight:100;font-stretch:normal;font-size:0.180556px;line-height:1.25;font-family:'Noto Sans';-inkscape-font-specification:'Noto Sans, Thin';font-variant-ligatures:normal;font-variant-caps:small-caps;font-variant-numeric:normal;font-variant-east-asian:normal;letter-spacing:0px;word-spacing:0px;writing-mode:lr-tb;stroke-width:0.00633567"
         x="1.5887183"
         y="0.66196591"
         id="text19553"><tspan
           id="tspan19551"
           x="1.5887183"
           y="0.66196591"
           style="font-style:normal;font-variant:normal;font-weight:100;font-stretch:normal;font-size:0.180556px;font-family:'Noto Sans';-inkscape-font-specification:'Noto Sans, Thin';font-variant-ligatures:normal;font-variant-caps:small-caps;font-variant-numeric:normal;font-variant-east-asian:normal;stroke-width:0.00633567">Thursday</tspan></text>
      <text
         xml:space="preserve"
         style="font-style:normal;font-variant:normal;font-weight:100;font-stretch:normal;font-size:0.305556px;line-height:1.25;font-family:'Noto Sans';-inkscape-font-specification:'Noto Sans, Thin';font-variant-ligatures:normal;font-variant-caps:normal;font-variant-numeric:normal;font-variant-east-asian:normal;letter-spacing:0px;word-spacing:0px;writing-mode:lr-tb;stroke-width:0.00633567"
         x="1.591135"
         y="0.96981764"
         id="date_thursday"><tspan
           id="tspan19555"
           x="1.591135"
           y="0.96981764"
           style="font-style:normal;font-variant:normal;font-weight:100;font-stretch:normal;font-size:0.305556px;font-family:'Noto Sans';-inkscape-font-specification:'Noto Sans, Thin';font-variant-ligatures:normal;font-variant-caps:normal;font-variant-numeric:normal;font-variant-east-asian:normal;stroke-width:0.00633567">1</tspan></text>
    </g>
    <g
       id="g19569"
       transform="translate(6.9223913,-0.18749997)">
      <text
         xml:space="preserve"
         style="font-style:normal;font-variant:normal;font-weight:100;font-stretch:normal;font-size:0.180556px;line-height:1.25;font-family:'Noto Sans';-inkscape-font-specification:'Noto Sans, Thin';font-variant-ligatures:normal;font-variant-caps:small-caps;font-variant-numeric:normal;font-variant-east-asian:normal;letter-spacing:0px;word-spacing:0px;writing-mode:lr-tb;stroke-width:0.00633567"
         x="1.5887183"
         y="0.66196591"
         id="text19563"><tspan
           id="tspan19561"
           x="1.5887183"
           y="0.66196591"
           style="font-style:normal;font-variant:normal;font-weight:100;font-stretch:normal;font-size:0.180556px;font-family:'Noto Sans';-inkscape-font-specification:'Noto Sans, Thin';font-variant-ligatures:normal;font-variant-caps:small-caps;font-variant-numeric:normal;font-variant-east-asian:normal;stroke-width:0.00633567">Friday</tspan></text>
      <text
         xml:space="preserve"
         style="font-style:normal;font-variant:normal;font-weight:100;font-stretch:normal;font-size:0.305556px;line-height:1.25;font-family:'Noto Sans';-inkscape-font-specification:'Noto Sans, Thin';font-variant-ligatures:normal;font-variant-caps:normal;font-variant-numeric:normal;font-variant-east-asian:normal;letter-spacing:0px;word-spacing:0px;writing-mode:lr-tb;stroke-width:0.00633567"
         x="1.591135"
         y="0.96981764"
         id="date_friday"><tspan
           id="tspan19565"
           x="1.591135"
           y="0.96981764"
           style="font-style:normal;font-variant:normal;font-weight:100;font-stretch:normal;font-size:0.305556px;font-family:'Noto Sans';-inkscape-font-specification:'Noto Sans, Thin';font-variant-ligatures:normal;font-variant-caps:normal;font-variant-numeric:normal;font-variant-east-asian:normal;stroke-width:0.00633567">1</tspan></text>
    </g>
    <g
       id="g9169"
       transform="translate(0.09040606,-0.17655964)">
      <text
         xml:space="preserve"
         style="font-style:normal;font-variant:normal;font-weight:normal;font-stretch:normal;font-size:0.180556px;line-height:1.25;font-family:'Noto Sans';-inkscape-font-specification:'Noto Sans';font-variant-ligatures:normal;font-variant-caps:small-caps;font-variant-numeric:normal;font-variant-east-asian:normal;text-align:center;letter-spacing:0px;word-spacing:0px;writing-mode:lr-tb;text-anchor:middle;stroke-width:0.00633567"
         x="-4.1818476"
         y="10.442802"
         id="text19493-2"
         transform="rotate(-90)"><tspan
           id="classification"
           x="-4.7580009"
           y="10.442802"
           style="font-style:normal;font-variant:normal;font-weight:normal;font-stretch:normal;font-size:0.180556px;font-family:'Noto Sans';-inkscape-font-specification:'Noto Sans';font-variant-ligatures:normal;font-variant-caps:small-caps;font-variant-numeric:normal;font-variant-east-asian:normal;text-align:center;text-anchor:middle;stroke-width:0.00633567">Classification</tspan></text>
    </g>
  </g>
  <g
     id="layer5">
    <text
       xml:space="preserve"
       style="font-style:normal;font-variant:normal;font-weight:100;font-stretch:normal;font-size:0.180556px;line-height:1.25;font-family:'Noto Sans';-inkscape-font-specification:'Noto Sans, Thin';font-variant-ligatures:normal;font-variant-caps:normal;font-variant-numeric:normal;font-variant-east-asian:normal;letter-spacing:0px;word-spacing:0px;writing-mode:lr-tb;stroke-width:0.00633567"
       x="0.81593287"
       y="1.4251723"
       id="text19493-7"><tspan
         id="tspan19491-1"
         x="0.81593287"
         y="1.4251723"
         style="font-style:normal;font-variant:normal;font-weight:100;font-stretch:normal;font-size:0.180556px;font-family:'Noto Sans';-inkscape-font-specification:'Noto Sans, Thin';font-variant-ligatures:normal;font-variant-caps:normal;font-variant-numeric:normal;font-variant-east-asian:normal;stroke-width:0.00633567">09:00</tspan></text>
    <text
       xml:space="preserve"
       style="font-style:normal;font-variant:normal;font-weight:100;font-stretch:normal;font-size:0.180556px;line-height:1.25;font-family:'Noto Sans';-inkscape-font-specification:'Noto Sans, Thin';font-variant-ligatures:normal;font-variant-caps:normal;font-variant-numeric:normal;font-variant-east-asian:normal;letter-spacing:0px;word-spacing:0px;writing-mode:lr-tb;stroke-width:0.00633567"
       x="0.81593287"
       y="2.1263683"
       id="text19598"><tspan
         id="tspan19596"
         x="0.81593287"
         y="2.1263683"
         style="font-style:normal;font-variant:normal;font-weight:100;font-stretch:normal;font-size:0.180556px;font-family:'Noto Sans';-inkscape-font-specification:'Noto Sans, Thin';font-variant-ligatures:normal;font-variant-caps:normal;font-variant-numeric:normal;font-variant-east-asian:normal;stroke-width:0.00633567">10:00</tspan></text>
    <text
       xml:space="preserve"
       style="font-style:normal;font-variant:normal;font-weight:100;font-stretch:normal;font-size:0.180556px;line-height:1.25;font-family:'Noto Sans';-inkscape-font-specification:'Noto Sans, Thin';font-variant-ligatures:normal;font-variant-caps:normal;font-variant-numeric:normal;font-variant-east-asian:normal;letter-spacing:0px;word-spacing:0px;writing-mode:lr-tb;stroke-width:0.00633567"
       x="0.81593287"
       y="2.8275642"
       id="text19602"><tspan
         id="tspan19600"
         x="0.81593287"
         y="2.8275642"
         style="font-style:normal;font-variant:normal;font-weight:100;font-stretch:normal;font-size:0.180556px;font-family:'Noto Sans';-inkscape-font-specification:'Noto Sans, Thin';font-variant-ligatures:normal;font-variant-caps:normal;font-variant-numeric:normal;font-variant-east-asian:normal;stroke-width:0.00633567">11:00</tspan></text>
    <text
       xml:space="preserve"
       style="font-style:normal;font-variant:normal;font-weight:100;font-stretch:normal;font-size:0.180556px;line-height:1.25;font-family:'Noto Sans';-inkscape-font-specification:'Noto Sans, Thin';font-variant-ligatures:normal;font-variant-caps:normal;font-variant-numeric:normal;font-variant-east-asian:normal;letter-spacing:0px;word-spacing:0px;writing-mode:lr-tb;stroke-width:0.00633567"
       x="0.81593287"
       y="3.52876"
       id="text19606"><tspan
         id="tspan19604"
         x="0.81593287"
         y="3.52876"
         style="font-style:normal;font-variant:normal;font-weight:100;font-stretch:normal;font-size:0.180556px;font-family:'Noto Sans';-inkscape-font-specification:'Noto Sans, Thin';font-variant-ligatures:normal;font-variant-caps:normal;font-variant-numeric:normal;font-variant-east-asian:normal;stroke-width:0.00633567">12:00</tspan></text>
    <text
       xml:space="preserve"
       style="font-style:normal;font-variant:normal;font-weight:100;font-stretch:normal;font-size:0.180556px;line-height:1.25;font-family:'Noto Sans';-inkscape-font-specification:'Noto Sans, Thin';font-variant-ligatures:normal;font-variant-caps:normal;font-variant-numeric:normal;font-variant-east-asian:normal;letter-spacing:0px;word-spacing:0px;writing-mode:lr-tb;stroke-width:0.00633567"
       x="0.81593287"
       y="4.2299557"
       id="text19610"><tspan
         id="tspan19608"
         x="0.81593287"
         y="4.2299557"
         style="font-style:normal;font-variant:normal;font-weight:100;font-stretch:normal;font-size:0.180556px;font-family:'Noto Sans';-inkscape-font-specification:'Noto Sans, Thin';font-variant-ligatures:normal;font-variant-caps:normal;font-variant-numeric:normal;font-variant-east-asian:normal;stroke-width:0.00633567">13:00</tspan></text>
    <text
       xml:space="preserve"
       style="font-style:normal;font-variant:normal;font-weight:100;font-stretch:normal;font-size:0.180556px;line-height:1.25;font-family:'Noto Sans';-inkscape-font-specification:'Noto Sans, Thin';font-variant-ligatures:normal;font-variant-caps:normal;font-variant-numeric:normal;font-variant-east-asian:normal;letter-spacing:0px;word-spacing:0px;writing-mode:lr-tb;stroke-width:0.00633567"
       x="0.81593287"
       y="4.9311519"
       id="text19614"><tspan
         id="tspan19612"
         x="0.81593287"
         y="4.9311519"
         style="font-style:normal;font-variant:normal;font-weight:100;font-stretch:normal;font-size:0.180556px;font-family:'Noto Sans';-inkscape-font-specification:'Noto Sans, Thin';font-variant-ligatures:normal;font-variant-caps:normal;font-variant-numeric:normal;font-variant-east-asian:normal;stroke-width:0.00633567">14:00</tspan></text>
    <text
       xml:space="preserve"
       style="font-style:normal;font-variant:normal;font-weight:100;font-stretch:normal;font-size:0.180556px;line-height:1.25;font-family:'Noto Sans';-inkscape-font-specification:'Noto Sans, Thin';font-variant-ligatures:normal;font-variant-caps:normal;font-variant-numeric:normal;font-variant-east-asian:normal;letter-spacing:0px;word-spacing:0px;writing-mode:lr-tb;stroke-width:0.00633567"
       x="0.81593287"
       y="5.6323481"
       id="text19618"><tspan
         id="tspan19616"
         x="0.81593287"
         y="5.6323481"
         style="font-style:normal;font-variant:normal;font-weight:100;font-stretch:normal;font-size:0.180556px;font-family:'Noto Sans';-inkscape-font-specification:'Noto Sans, Thin';font-variant-ligatures:normal;font-variant-caps:normal;font-variant-numeric:normal;font-variant-east-asian:normal;stroke-width:0.00633567">15:00</tspan></text>
    <text
       xml:space="preserve"
       style="font-style:normal;font-variant:normal;font-weight:100;font-stretch:normal;font-size:0.180556px;line-height:1.25;font-family:'Noto Sans';-inkscape-font-specification:'Noto Sans, Thin';font-variant-ligatures:normal;font-variant-caps:normal;font-variant-numeric:normal;font-variant-east-asian:normal;letter-spacing:0px;word-spacing:0px;writing-mode:lr-tb;stroke-width:0.00633567"
       x="0.81593287"
       y="6.3335433"
       id="text19622"><tspan
         id="tspan19620"
         x="0.81593287"
         y="6.3335433"
         style="font-style:normal;font-variant:normal;font-weight:100;font-stretch:normal;font-size:0.180556px;font-family:'Noto Sans';-inkscape-font-specification:'Noto Sans, Thin';font-variant-ligatures:normal;font-variant-caps:normal;font-variant-numeric:normal;font-variant-east-asian:normal;stroke-width:0.00633567">16:00</tspan></text>
    <text
       xml:space="preserve"
       style="font-style:normal;font-variant:normal;font-weight:100;font-stretch:normal;font-size:0.180556px;line-height:1.25;font-family:'Noto Sans';-inkscape-font-specification:'Noto Sans, Thin';font-variant-ligatures:normal;font-variant-caps:normal;font-variant-numeric:normal;font-variant-east-asian:normal;letter-spacing:0px;word-spacing:0px;writing-mode:lr-tb;stroke-width:0.00633567"
       x="0.81593287"
       y="7.0347395"
       id="text19626"><tspan
         id="tspan19624"
         x="0.81593287"
         y="7.0347395"
         style="font-style:normal;font-variant:normal;font-weight:100;font-stretch:normal;font-size:0.180556px;font-family:'Noto Sans';-inkscape-font-specification:'Noto Sans, Thin';font-variant-ligatures:normal;font-variant-caps:normal;font-variant-numeric:normal;font-variant-east-asian:normal;stroke-width:0.00633567">17:00</tspan></text>
    <text
       xml:space="preserve"
       style="font-style:normal;font-variant:normal;font-weight:100;font-stretch:normal;font-size:0.180556px;line-height:1.25;font-family:'Noto Sans';-inkscape-font-specification:'Noto Sans, Thin';font-variant-ligatures:normal;font-variant-caps:normal;font-variant-numeric:normal;font-variant-east-asian:normal;letter-spacing:0px;word-spacing:0px;writing-mode:lr-tb;stroke-width:0.00633567"
       x="0.81279212"
       y="7.7359352"
       id="text19630"><tspan
         id="tspan19628"
         x="0.81279212"
         y="7.7359352"
         style="font-style:normal;font-variant:normal;font-weight:100;font-stretch:normal;font-size:0.180556px;font-family:'Noto Sans';-inkscape-font-specification:'Noto Sans, Thin';font-variant-ligatures:normal;font-variant-caps:normal;font-variant-numeric:normal;font-variant-east-asian:normal;stroke-width:0.00633567">18:00</tspan></text>
  </g>
  <g
     id="layer6">
    <g
       id="group_monday"
       transform="translate(1.5644452,1.2573696)">
      <rect
         style="fill:none;stroke:none;stroke-width:0.00950923;stroke-dasharray:0.00950923, 0.00950923;stroke-opacity:1"
         id="rect19633"
         width="1.7257081"
         height="6.9937897"
         x="0.0049999999"
         y="0.0049999999" />
    </g>
    <g
       id="group_tuesday"
       transform="translate(3.2901533,1.2573696)">
      <rect
         style="fill:none;stroke:none;stroke-width:0.00950923;stroke-dasharray:0.00950923, 0.00950923;stroke-opacity:1"
         id="rect19646"
         width="1.7257081"
         height="6.9937897"
         x="0.0049999999"
         y="0.0049999999" />
    </g>
    <g
       id="group_wednesday"
       transform="translate(5.0158614,1.2573696)">
      <rect
         style="fill:none;stroke:none;stroke-width:0.00950923;stroke-dasharray:0.00950923, 0.00950923;stroke-opacity:1"
         width="1.7257081"
         height="6.9937897"
         x="0.0049999999"
         y="0.0049999999"
         id="rect20947" />
    </g>
    <g
       id="group_thursday"
       transform="translate(6.7415695,1.2573696)">
      <rect
         style="fill:none;stroke:none;stroke-width:0.00950923;stroke-dasharray:0.00950923, 0.00950923;stroke-opacity:1"
         width="1.7257081"
         height="6.9937897"
         x="0.0049999999"
         y="0.0049999999"
         id="rect19656" />
    </g>
    <g
       id="group_friday"
       transform="translate(8.4672739,1.2573696)">
      <rect
         style="fill:none;stroke:none;stroke-width:0.00950923;stroke-dasharray:0.00950923, 0.00950923;stroke-opacity:1"
         width="1.7257081"
         height="6.9937897"
         x="0.0049999999"
         y="0.0049999999"
         id="rect19660" />
    </g>
  </g>
  <g
     id="template"
     style="display:none">
    <rect
       style="fill:#ffffff;fill-opacity:1;stroke:#000000;stroke-width:0.0104774;stroke-miterlimit:4;stroke-dasharray:none"
       width="0.95384622"
       height="0.73774922"
       x="0.0052387002"
       y="0.0052387002"
       rx="0.050000001"
       ry="0.050000001"
       id="rect_template" />
    <text
       xml:space="preserve"
       style="font-style:normal;font-variant:normal;font-weight:100;font-stretch:condensed;font-size:0.138889px;line-height:1.25;font-family:'Noto Sans';-inkscape-font-specification:'Noto Sans, Thin Condensed';font-variant-ligatures:normal;font-variant-caps:normal;font-variant-numeric:normal;font-variant-east-asian:normal;letter-spacing:0px;word-spacing:0px;writing-mode:lr-tb;white-space:pre;shape-inside:url(#rect_template)"
       id="text1859"
       transform="translate(0.00615719,0.02715649)"><tspan
         x="0.037326381"
         y="0.13223103"
         id="tspan1352"><tspan
           style="shape-inside:url(#rect_template)"
           id="tspan1350">asdf</tspan></tspan></text>
  </g>
</svg>
